{
    "tileset" : [
                 {
                 "name" : "straight",
                 "image" : "Arbres_01.png",
                 "reverseX" : false,
                 "reverseY" : false,
                 "rotateAngle" : 0,
                 "offset" : 80,
                 "leftLimit" : -78,
                 "rightLimit" : 78,
                 "leftEnnemiLimit" : -62,
                 "rightEnnemiLimit" : 62,
                 "hardLeftLimit" : -105,
                 "hardRightLimit" : 105,
                 "bufferSize" : 20,
                 "child" : [
                            0,0,0,0,1,2,3,4
                            ],
                 "trees" : [[40,20],[40,60],[40,100],[40,140],[280,20],[280,60],[280,100],[280,140]],
                 "obstacles" : [
                                "holeInRoad1","holeInRoad2","holeInRoad3","holeInRoad4","holeInRoad5",
                                "holeInRoad7","holeInRoad8","holeInRoad9","holeInRoad10",
                                "holeInRoad11","breakTraces1","breakTraces2","bigHeal","cone","fence","shield","rocketLauncher",
                                "greenCar","whiteTruck",
                                "purpleCar","brownTruck",
                                "redCar","blueTruck",
                                "blackCar","blackTruck"
                                ]
                 },    {
                 "name" : "inter1",
                 "image" : "Intersections_01.png",
                 "reverseX" : false,
                 "reverseY" : false,
                 "rotateAngle" : 0,
                 "offset" : 80,
                 "leftLimit" : -78,
                 "rightLimit" : 78,
                 "leftEnnemiLimit" : -62,
                 "rightEnnemiLimit" : 62,
                 "hardLeftLimit" : -105,
                 "hardRightLimit" : 105,
                 "bufferSize" : 20,
                 "child" : [
                            0
                            ],
                 "trees" : [[40,20],[40,60],[40,100],[40,140]],
                 "obstacles" : [
                                "holeInRoad1","holeInRoad2","holeInRoad3","holeInRoad4","holeInRoad5",
                                "holeInRoad7","holeInRoad8","holeInRoad9","holeInRoad10",
                                "holeInRoad11","breakTraces1","breakTraces2","pieton1",
                                "pieton2",
                                "pieton3",
                                "pieton4"
                                ]
                 },
                 {
                 "name" : "inter2",
                 "image" : "Intersections_02.png",
                 "reverseX" : false,
                 "reverseY" : false,
                 "rotateAngle" : 0,
                 "offset" : 0,
                 "leftLimit" : -78,
                 "rightLimit" : 78,
                 "leftEnnemiLimit" : -62,
                 "rightEnnemiLimit" : 62,
                 "hardLeftLimit" : -105,
                 "hardRightLimit" : 105,
                 "bufferSize" : 20,
                 "child" : [
                            0
                            ],
                 "obstacles" : [
                                "holeInRoad1","holeInRoad2","holeInRoad3","holeInRoad4","holeInRoad5",
                                "holeInRoad7","holeInRoad8","holeInRoad9","holeInRoad10",
                                "holeInRoad11","breakTraces1","breakTraces2","pieton1",
                                "pieton2",
                                "pieton3",
                                "pieton4"
                                ]
                 },
                 {
                 "name" : "inter3",
                 "image" : "Intersections_03.png",
                 "reverseX" : false,
                 "reverseY" : false,
                 "rotateAngle" : 0,
                 "offset" : 0,
                 "leftLimit" : -78,
                 "rightLimit" : 78,
                 "leftEnnemiLimit" : -62,
                 "rightEnnemiLimit" : 62,
                 "hardLeftLimit" : -105,
                 "hardRightLimit" : 105,
                 "bufferSize" : 20,
                 "child" : [
                            0
                            ],
                 "trees" : [[280,20],[280,60],[280,100],[280,140]],
                 "obstacles" : [
                                "holeInRoad1","holeInRoad2","holeInRoad3","holeInRoad4","holeInRoad5",
                                "holeInRoad7","holeInRoad8","holeInRoad9","holeInRoad10",
                                "holeInRoad11","breakTraces1","breakTraces2","pieton1",
                                "pieton2",
                                "pieton3",
                                "pieton4"
                                ]
                 },
                 {
                 "name" : "entree1",
                 "image" : "entree_01.png",
                 "reverseX" : false,
                 "reverseY" : false,
                 "rotateAngle" : 0,
                 "offset" : 0,
                 "leftLimit" : -110,
                 "rightLimit" : 110,
                 "leftEnnemiLimit" : -62,
                 "rightEnnemiLimit" : 62,
                 "hardLeftLimit" : -120,
                 "hardRightLimit" : 120,
                 "bufferSize" : 20,
                 "child" : [
                            5
                            ],
                 "trees" : [[40,100],[40,140],[280,100],[280,140]],
                 "obstacles" : [
                                "holeInRoad1","holeInRoad2","holeInRoad3","holeInRoad4","holeInRoad5",
                                "holeInRoad7","holeInRoad8","holeInRoad9","holeInRoad10",
                                "holeInRoad11","breakTraces1","breakTraces2","bigHeal","shield","rocketLauncher",
                                "greenCar","whiteTruck","greenCar","whiteTruck",
                                "purpleCar","brownTruck","purpleCar","brownTruck",
                                "redCar","blueTruck","redCar","blueTruck",
                                "blackCar","blackTruck","blackCar","blackTruck"
                                ],
                 "medians" : [
                              {
                              "leftLimit" : -10,
                              "rightLimit" : 10
                              }
                              ]
                 },
                 {
                 "name" : "entree2",
                 "image" : "entree_02.png",
                 "reverseX" : false,
                 "reverseY" : false,
                 "rotateAngle" : 0,
                 "offset" : 0,
                 "leftLimit" : -140,
                 "rightLimit" : 140,
                 "leftEnnemiLimit" : -62,
                 "rightEnnemiLimit" : 62,
                 "hardLeftLimit" : -160,
                 "hardRightLimit" : 160,
                 "bufferSize" : 20,
                 "child" : [
                            6,
                            9
                            ],
                 "obstacles" : [
                                "holeInRoad1","holeInRoad2","holeInRoad3","holeInRoad4","holeInRoad5",
                                "holeInRoad7","holeInRoad8","holeInRoad9","holeInRoad10",
                                "holeInRoad11","breakTraces1","breakTraces2","bigHeal","shield","rocketLauncher",
                                "greenCar","whiteTruck","greenCar","whiteTruck",
                                "purpleCar","brownTruck","purpleCar","brownTruck",
                                "redCar","blueTruck","redCar","blueTruck",
                                "blackCar","blackTruck","blackCar","blackTruck"
                                ],
                 "medians" : [
                              {
                              "leftLimit" : -10,
                              "rightLimit" : 10
                              }
                              ]
                 },
                 {
                 "name" : "large1",
                 "image" : "Large_01.png",
                 "reverseX" : false,
                 "reverseY" : false,
                 "rotateAngle" : 0,
                 "offset" : 0,
                 "leftLimit" : -140,
                 "rightLimit" : 140,
                 "leftEnnemiLimit" : -130,
                 "rightEnnemiLimit" : 130,
                 "hardLeftLimit" : -160,
                 "hardRightLimit" : 160,
                 "bufferSize" : 20,
                 "child" : [
                            8
                            ],
                 "obstacles" : [
                                "holeInRoad1","holeInRoad2","holeInRoad3","holeInRoad4","holeInRoad5",
                                "holeInRoad7","holeInRoad8","holeInRoad9","holeInRoad10",
                                "holeInRoad11","breakTraces1","breakTraces2","bigHeal","shield","rocketLauncher",
                                "greenCar","whiteTruck","greenCar","whiteTruck",
                                "purpleCar","brownTruck","purpleCar","brownTruck",
                                "redCar","blueTruck","redCar","blueTruck",
                                "blackCar","blackTruck","blackCar","blackTruck"
                                ],
                 "medians" : [
                              {
                              "leftLimit" : -10,
                              "rightLimit" : 10
                              }
                              ]
                 },
                 {
                 "name" : "large2",
                 "image" : "Large_02.png",
                 "reverseX" : false,
                 "reverseY" : false,
                 "rotateAngle" : 0,
                 "offset" : 0,
                 "leftLimit" : -140,
                 "rightLimit" : 140,
                 "leftEnnemiLimit" : -130,
                 "rightEnnemiLimit" : 130,
                 "hardLeftLimit" : -160,
                 "hardRightLimit" : 160,
                 "bufferSize" : 20,
                 "child" : [
                            9,
                            10
                            ],
                 "obstacles" : [
                                "holeInRoad1","holeInRoad2","holeInRoad3","holeInRoad4","holeInRoad5",
                                "holeInRoad7","holeInRoad8","holeInRoad9","holeInRoad10",
                                "holeInRoad11","breakTraces1","breakTraces2","bigHeal","shield","rocketLauncher",
                                "greenCar","whiteTruck","greenCar","whiteTruck",
                                "purpleCar","brownTruck","purpleCar","brownTruck",
                                "redCar","blueTruck","redCar","blueTruck",
                                "blackCar","blackTruck","blackCar","blackTruck"
                                ],
                 "medians" : [
                              {
                              "leftLimit" : -10,
                              "rightLimit" : 10
                              }
                              ]
                 },
                 {
                 "name" : "large3",
                 "image" : "Large_03.png",
                 "reverseX" : false,
                 "reverseY" : false,
                 "rotateAngle" : 0, 
                 "offset" : 0,
                 "leftLimit" : -140,
                 "rightLimit" : 140,
                 "leftEnnemiLimit" : -130,
                 "rightEnnemiLimit" : 130,
                 "hardLeftLimit" : -160,
                 "hardRightLimit" : 160,
                 "bufferSize" : 20,
                 "child" : [
                            7,
                            8,
                            8,
                            8,
                            8
                            ],
                 "obstacles" : [
                                "holeInRoad1","holeInRoad2","holeInRoad3","holeInRoad4","holeInRoad5",
                                "holeInRoad7","holeInRoad8","holeInRoad9","holeInRoad10",
                                "holeInRoad11","breakTraces1","breakTraces2","bigHeal","shield","rocketLauncher",
                                "greenCar","whiteTruck","greenCar","whiteTruck",
                                "purpleCar","brownTruck","purpleCar","brownTruck",
                                "redCar","blueTruck","redCar","blueTruck",
                                "blackCar","blackTruck","blackCar","blackTruck"
                                ]
                 },
                 {
                 "name" : "large4",
                 "image" : "Large_04.png",
                 "reverseX" : false,
                 "reverseY" : false,
                 "rotateAngle" : 0,  
                 "offset" : 0,
                 "leftLimit" : -140,
                 "rightLimit" : 140,
                 "leftEnnemiLimit" : -130,
                 "rightEnnemiLimit" : 130,
                 "hardLeftLimit" : -160,
                 "hardRightLimit" : 160,
                 "bufferSize" : 20,
                 "child" : [
                            6,6,6,6,6,6,6,6,6,6,6,6,
                            10
                            ],
                 "obstacles" : [
                                "holeInRoad1","holeInRoad2","holeInRoad3","holeInRoad4","holeInRoad5",
                                "holeInRoad7","holeInRoad8","holeInRoad9","holeInRoad10",
                                "holeInRoad11","breakTraces1","breakTraces2","bigHeal","shield","rocketLauncher",
                                "greenCar","whiteTruck","greenCar","whiteTruck",
                                "purpleCar","brownTruck","purpleCar","brownTruck",
                                "redCar","blueTruck","redCar","blueTruck",
                                "blackCar","blackTruck","blackCar","blackTruck"
                                ],
                 "medians" : [
                              {
                              "leftLimit" : -10,
                              "rightLimit" : 10
                              }
                              ]
                 },
                 {
                 "name" : "sortie1",
                 "image" : "Sortie_01.png",
                 "reverseX" : false,
                 "reverseY" : false,
                 "rotateAngle" : 0,  
                 "offset" : 0,
                 "leftLimit" : -140,
                 "rightLimit" : 140,
                 "leftEnnemiLimit" : -62,
                 "rightEnnemiLimit" : 62,
                 "hardLeftLimit" : -160,
                 "hardRightLimit" : 160,
                 "bufferSize" : 20,
                 "child" : [
                            11
                            ],
                 "obstacles" : [
                                "holeInRoad1","holeInRoad2","holeInRoad3","holeInRoad4","holeInRoad5",
                                "holeInRoad7","holeInRoad8","holeInRoad9","holeInRoad10",
                                "holeInRoad11","breakTraces1","breakTraces2","bigHeal","shield","rocketLauncher",
                                "greenCar","whiteTruck","greenCar","whiteTruck",
                                "purpleCar","brownTruck","purpleCar","brownTruck",
                                "redCar","blueTruck","redCar","blueTruck",
                                "blackCar","blackTruck","blackCar","blackTruck"
                                ],
                 "medians" : [
                              {
                              "leftLimit" : -10,
                              "rightLimit" : 10
                              }
                              ]
                 },
                 {
                 "name" : "sortie2",
                 "image" : "Sortie_02.png",
                 "reverseX" : false,
                 "reverseY" : false,
                 "rotateAngle" : 0,  
                 "offset" : 0,
                 "leftLimit" : -110,
                 "rightLimit" : 110,
                 "leftEnnemiLimit" : -62,
                 "rightEnnemiLimit" : 62,
                 "hardLeftLimit" : -120,
                 "hardRightLimit" : 120,
                 "bufferSize" : 20,
                 "child" : [
                            0
                            ],
                 "trees" : [[40,20],[40,60],[280,20],[280,60]],
                 "obstacles" : [
                                "holeInRoad1","holeInRoad2","holeInRoad3","holeInRoad4","holeInRoad5",
                                "holeInRoad7","holeInRoad8","holeInRoad9","holeInRoad10",
                                "holeInRoad11","breakTraces1","breakTraces2","bigHeal","shield","rocketLauncher",
                                "greenCar","whiteTruck","greenCar","whiteTruck",
                                "purpleCar","brownTruck","purpleCar","brownTruck",
                                "redCar","blueTruck","redCar","blueTruck",
                                "blackCar","blackTruck","blackCar","blackTruck"
                                ],
                 "medians" : [
                              {
                              "leftLimit" : -10,
                              "rightLimit" : 10
                              }
                              ]
                 }
                 ]
}